module github.com/nginxinc/kubernetes-ingress

go 1.17

require (
	github.com/aws/aws-sdk-go-v2/config v1.10.0
	github.com/aws/aws-sdk-go-v2/service/marketplacemetering v1.6.0
	github.com/golang-jwt/jwt/v4 v4.1.0
	github.com/golang/glog v1.0.0
	github.com/google/go-cmp v0.5.6
	github.com/nginxinc/nginx-plus-go-client v0.9.0
	github.com/nginxinc/nginx-prometheus-exporter v0.9.0
	github.com/prometheus/client_golang v1.11.0
	github.com/spiffe/go-spiffe v1.1.0
	k8s.io/api v0.22.3
	k8s.io/apimachinery v0.22.3
	k8s.io/client-go v0.22.3
	k8s.io/code-generator v0.22.3
	sigs.k8s.io/controller-tools v0.7.0
)

require (
	github.com/PuerkitoBio/purell v1.1.1 // indirect
	github.com/PuerkitoBio/urlesc v0.0.0-20170810143723-de5bf2ad4578 // indirect
	github.com/aws/aws-sdk-go-v2 v1.11.0 // indirect
	github.com/aws/aws-sdk-go-v2/credentials v1.6.0 // indirect
	github.com/aws/aws-sdk-go-v2/feature/ec2/imds v1.8.0 // indirect
	github.com/aws/aws-sdk-go-v2/internal/configsources v1.1.0 // indirect
	github.com/aws/aws-sdk-go-v2/internal/endpoints/v2 v2.0.0 // indirect
	github.com/aws/aws-sdk-go-v2/internal/ini v1.3.0 // indirect
	github.com/aws/aws-sdk-go-v2/service/internal/presigned-url v1.5.0 // indirect
	github.com/aws/aws-sdk-go-v2/service/sso v1.6.0 // indirect
	github.com/aws/aws-sdk-go-v2/service/sts v1.9.0 // indirect
	github.com/aws/smithy-go v1.9.0 // indirect
	github.com/beorn7/perks v1.0.1 // indirect
	github.com/cespare/xxhash/v2 v2.1.1 // indirect
	github.com/davecgh/go-spew v1.1.1 // indirect
	github.com/emicklei/go-restful v2.9.5+incompatible // indirect
	github.com/evanphx/json-patch v4.11.0+incompatible // indirect
	github.com/fatih/color v1.12.0 // indirect
	github.com/go-logr/logr v0.4.0 // indirect
	github.com/go-openapi/jsonpointer v0.19.5 // indirect
	github.com/go-openapi/jsonreference v0.19.5 // indirect
	github.com/go-openapi/swag v0.19.14 // indirect
	github.com/gobuffalo/flect v0.2.3 // indirect
	github.com/gogo/protobuf v1.3.2 // indirect
	github.com/golang/groupcache v0.0.0-20210331224755-41bb18bfe9da // indirect
	github.com/golang/protobuf v1.5.2 // indirect
	github.com/google/gofuzz v1.1.0 // indirect
	github.com/googleapis/gnostic v0.5.5 // indirect
	github.com/imdario/mergo v0.3.5 // indirect
	github.com/inconshreveable/mousetrap v1.0.0 // indirect
	github.com/josharian/intern v1.0.0 // indirect
	github.com/json-iterator/go v1.1.11 // indirect
	github.com/mailru/easyjson v0.7.6 // indirect
	github.com/mattn/go-colorable v0.1.8 // indirect
	github.com/mattn/go-isatty v0.0.12 // indirect
	github.com/matttproud/golang_protobuf_extensions v1.0.2-0.20181231171920-c182affec369 // indirect
	github.com/modern-go/concurrent v0.0.0-20180306012644-bacd9c7ef1dd // indirect
	github.com/modern-go/reflect2 v1.0.1 // indirect
	github.com/pkg/errors v0.9.1 // indirect
	github.com/prometheus/client_model v0.2.0 // indirect
	github.com/prometheus/common v0.26.0 // indirect
	github.com/prometheus/procfs v0.6.0 // indirect
	github.com/spf13/cobra v1.2.1 // indirect
	github.com/spf13/pflag v1.0.5 // indirect
	golang.org/x/mod v0.4.2 // indirect
	golang.org/x/net v0.0.0-20210520170846-37e1c6afe023 // indirect
	golang.org/x/oauth2 v0.0.0-20210402161424-2e8d93401602 // indirect
	golang.org/x/sys v0.0.0-20210616094352-59db8d763f22 // indirect
	golang.org/x/term v0.0.0-20210220032956-6a3ed077a48d // indirect
	golang.org/x/text v0.3.6 // indirect
	golang.org/x/time v0.0.0-20210723032227-1f47c861a9ac // indirect
	golang.org/x/tools v0.1.5 // indirect
	golang.org/x/xerrors v0.0.0-20200804184101-5ec99f83aff1 // indirect
	google.golang.org/appengine v1.6.7 // indirect
	google.golang.org/genproto v0.0.0-20210602131652-f16073e35f0c // indirect
	google.golang.org/grpc v1.38.0 // indirect
	google.golang.org/protobuf v1.26.0 // indirect
	gopkg.in/inf.v0 v0.9.1 // indirect
	gopkg.in/yaml.v2 v2.4.0 // indirect
	gopkg.in/yaml.v3 v3.0.0-20210107192922-496545a6307b // indirect
	k8s.io/apiextensions-apiserver v0.22.2 // indirect
	k8s.io/gengo v0.0.0-20201214224949-b6c5ce23f027 // indirect
	k8s.io/klog/v2 v2.9.0 // indirect
	k8s.io/kube-openapi v0.0.0-20210421082810-95288971da7e // indirect
	k8s.io/utils v0.0.0-20210819203725-bdf08cb9a70a // indirect
	sigs.k8s.io/structured-merge-diff/v4 v4.1.2 // indirect
	sigs.k8s.io/yaml v1.2.0 // indirect
)
